…
```r
raw <- read_sf("../data/blackbears/FL_Black_Bear_Capture_Locations.shp")
raw
```

```
## Simple feature collection with 1825 features and 33 fields (with 2 geometries empty)
## Geometry type: POINT
## Dimension:     XY
## Bounding box:  xmin: -87.4664 ymin: 25.57503 xmax: -80.25332 ymax: 30.98165
## Geodetic CRS:  WGS 84
## # A tibble: 1,825 × 34
##    OBJECTID IncidentID    ReportDate CapDate    Region BMU   County Locale City 
##       <int> <chr>         <date>     <date>     <chr>  <chr> <chr>  <chr>  <chr>
##  1     8757 Bear-0000016… 1900-01-01 2014-07-25 North… Cent… Putnam <NA>   <NA> 
##  2     8758 Bear-0000016… 1900-01-01 2013-07-25 North… Cent… Putnam <NA>   <NA> 
##  3     8759 Bear-0000009… 1981-10-15 1981-10-15 North… Cent… Semin… <NA>   SANF…
##  4     8760 Bear-0000014… 1982-05-28 NA         North… Cent… Lake   OTHER  OCAL…
##  5     8761 Bear-0000014… 1985-01-01 NA         North… West… Okalo… OTHER  <NA> 
##  6     8762 Bear-0000006… 1986-05-13 1986-05-14 North… North Baker  OTHER  SEBR…
##  7     8763 Bear-0000014… 1986-06-10 NA         North… West… Okalo… OTHER  <NA> 
##  8     8764 Bear-0000009… 1986-08-02 1986-08-02 North… Cent… Clay   OTHER  MIDD…
##  9     8765 Bear-0000009… 1986-09-10 1986-09-10 North… North Baker  OTHER  GLEN…
## 10     8766 Bear-0000014… 1987-07-30 1987-07-30 South  South Colli… <NA>   <NA> 
## # … with 1,815 more rows, and 25 more variables: ZipCode <chr>, Latitude <dbl>,
## #   Longitude <dbl>, CapReason <chr>, OCapReason <chr>, NCapReason <chr>,
## #   CapMethod <chr>, OrigCap <chr>, FinAction <chr>, OFinAction <chr>,
## #   Sex <chr>, AgeClass <chr>, Weight <dbl>, Age <dbl>, Cubs <chr>,
## #   Yearlings <chr>, LEarTag1 <chr>, LEarTag2 <chr>, REarTag1 <chr>,
## #   REarTag2 <chr>, Tattoo1 <chr>, Tattoo2 <chr>, TrackNum <chr>,
## #   last_edite <date>, geometry <POINT [°]>
```
…
